album,title,date,file,url
"Carbone 14, le magazine de l'archéologie",La chute de Babylone ou l'histoire d'un roi fou,30/04/2022,23118-30.04.2022-ITEMA_23011533-2022C26375E0016-21.mp3,https://media.radiofrance-podcast.net/podcast09/23118-30.04.2022-ITEMA_23011533-2022C26375E0016-21.mp3
"Carbone 14, le magazine de l'archéologie",Entre technique et culture : l’art de bien faire,23/04/2022,10267-23.04.2022-ITEMA_23004412-2022C26375E0015-21.mp3,https://media.radiofrance-podcast.net/podcast09/10267-23.04.2022-ITEMA_23004412-2022C26375E0015-21.mp3
"Carbone 14, le magazine de l'archéologie",Archéologie des mythes : une plongée dans l’imaginaire de l’humanité,16/04/2022,10267-16.04.2022-ITEMA_22997398-2022C26375E0014-21.mp3,https://media.radiofrance-podcast.net/podcast09/10267-16.04.2022-ITEMA_22997398-2022C26375E0014-21.mp3
"Carbone 14, le magazine de l'archéologie","La bande à Nectaire... En plateau, affinons l'histoire du fromage !",09/04/2022,10267-09.04.2022-ITEMA_22990198-2022C26375E0013-21.mp3,https://media.radiofrance-podcast.net/podcast09/10267-09.04.2022-ITEMA_22990198-2022C26375E0013-21.mp3
"Carbone 14, le magazine de l'archéologie",Que doit-on aux Phéniciens ?,02/04/2022,10267-02.04.2022-ITEMA_22982784-2022C26375E0012-21.mp3,https://media.radiofrance-podcast.net/podcast09/10267-02.04.2022-ITEMA_22982784-2022C26375E0012-21.mp3
"Carbone 14, le magazine de l'archéologie",Pour une histoire globale des migrations,26/03/2022,10267-26.03.2022-ITEMA_22975417-2022C26375E0011-21.mp3,https://media.radiofrance-podcast.net/podcast09/10267-26.03.2022-ITEMA_22975417-2022C26375E0011-21.mp3
"Carbone 14, le magazine de l'archéologie",La France : un vaste site archéologique ?,19/03/2022,10267-19.03.2022-ITEMA_22967929-2022C26375E0010-21.mp3,https://media.radiofrance-podcast.net/podcast09/10267-19.03.2022-ITEMA_22967929-2022C26375E0010-21.mp3
"Carbone 14, le magazine de l'archéologie",Archéologie des croisades : la nécropole d’Atlit (Israël),12/03/2022,10267-12.03.2022-ITEMA_22960372-2022C26375E0009-21.mp3,https://media.radiofrance-podcast.net/podcast09/10267-12.03.2022-ITEMA_22960372-2022C26375E0009-21.mp3
"Carbone 14, le magazine de l'archéologie",Surveiller et punir : archéologie de la justice médiévale,05/03/2022,10267-05.03.2022-ITEMA_22952792-2022C26375E0008-21.mp3,https://media.radiofrance-podcast.net/podcast09/10267-05.03.2022-ITEMA_22952792-2022C26375E0008-21.mp3
"Carbone 14, le magazine de l'archéologie",Découvertes exceptionnelles dans les profondeurs du lac Titicaca,26/02/2022,10267-26.02.2022-ITEMA_22945411-2021C26375E0291-21.mp3,https://media.radiofrance-podcast.net/podcast09/10267-26.02.2022-ITEMA_22945411-2021C26375E0291-21.mp3
"Carbone 14, le magazine de l'archéologie",Il y a 54 000 ans arrivait Homo Sapiens en France dans la grotte Mandrin (Drôme),19/02/2022,10267-19.02.2022-ITEMA_22938189-2022C26375E0007-21.mp3,https://media.radiofrance-podcast.net/podcast09/10267-19.02.2022-ITEMA_22938189-2022C26375E0007-21.mp3
"Carbone 14, le magazine de l'archéologie","À la rencontre de Laurent Bruxelles, géoarchéologue",12/02/2022,10267-12.02.2022-ITEMA_22931104-2022C26375E0006-21.mp3,https://media.radiofrance-podcast.net/podcast09/10267-12.02.2022-ITEMA_22931104-2022C26375E0006-21.mp3
"Carbone 14, le magazine de l'archéologie",À l'abordage : archéologie de la piraterie,05/02/2022,10267-05.02.2022-ITEMA_22923653-2022C26375E0005-21.mp3,https://media.radiofrance-podcast.net/podcast09/10267-05.02.2022-ITEMA_22923653-2022C26375E0005-21.mp3
"Carbone 14, le magazine de l'archéologie",Jean-Jacques Beineix : l’Homme qui toucha les moustaches de Vercingétorix,29/01/2022,10267-29.01.2022-ITEMA_22916078-2022C26375E0004-21.mp3,https://media.radiofrance-podcast.net/podcast09/10267-29.01.2022-ITEMA_22916078-2022C26375E0004-21.mp3
